Regime Type and Nuclear Proliferation
…
Afghanistan
AFG
1942
0
0

Afghanistan
AFG
1943
0
0

# A tibble: 21,328 × 5
   entity      code   year nuclear_status nuclear_program
   <chr>       <chr> <dbl>          <dbl>           <dbl>
 1 Afghanistan AFG    1938              0               0
 2 Afghanistan AFG    1939              0               0
 3 Afghanistan AFG    1940              0               0
 4 Afghanistan AFG    1941              0               0
 5 Afghanistan AFG    1942              0               0
 6 Afghanistan AFG    1943              0               0
 7 Afghanistan AFG    1944              0               0
 8 Afghanistan AFG    1945              0               0
 9 Afghanistan AFG    1946              0               0
10 Afghanistan AFG    1947              0               0
# ℹ 21,318 more rows
…
Afghanistan
AFG
1793
0

Afghanistan
AFG
1794
0

# A tibble: 31,492 × 4
   entity      code   year regime_row_owid
   <chr>       <chr> <dbl>           <dbl>
 1 Afghanistan AFG    1789               0
 2 Afghanistan AFG    1790               0
 3 Afghanistan AFG    1791               0
 4 Afghanistan AFG    1792               0
 5 Afghanistan AFG    1793               0
 6 Afghanistan AFG    1794               0
 7 Afghanistan AFG    1795               0
 8 Afghanistan AFG    1796               0
 9 Afghanistan AFG    1797               0
10 Afghanistan AFG    1798               0
# ℹ 31,482 more rows
…
